{
	"CustomMarkings_main_title" : "Custom Markings",
	"CustomMarkings_main_desc" : "Customize contour colors for marked targets",
	
	"CustomMarkings_main_active_mark_desc" : "The type of contour to modify. The type is determined by the source of the mark and whether HVT based and/or aced is acquired",
	"CustomMarkings_main_active_mark_title" : "Contour type",
	"CustomMarkings_main_active_unit_desc" : "The target unit type to modify the contour for",
	"CustomMarkings_main_active_unit_title" : "Unit type",
	"CustomMarkings_main_blue_desc" : "",
	"CustomMarkings_main_blue_title" : "Blue",
	"CustomMarkings_main_color_space_desc" : "",
	"CustomMarkings_main_color_space_title" : "Preview",
	"CustomMarkings_main_enabled_desc" : "Use custom contours for the specified unit type. This applies to all the different contours, not just the currently selected",
	"CustomMarkings_main_enabled_title" : "Enable override",
	"CustomMarkings_main_flash_desc" : "Contour flash frequency in flashes/second. Set to 0 for no flashing",
	"CustomMarkings_main_flash_title" : "Flash frequency",
	"CustomMarkings_main_green_desc" : "",
	"CustomMarkings_main_green_title" : "Green",
	"CustomMarkings_main_red_desc" : "",
	"CustomMarkings_main_red_title" : "Red",
	"CustomMarkings_main_reset_desc" : "Reset settings for this contour to default values",
	"CustomMarkings_main_reset_title" : "Reset",

	"CustomMarkings_main_active_unit_opt_tank_title" : "Bulldozer",
	"CustomMarkings_main_active_unit_opt_tank_medic_title" : "Bulldozer (Medic)",
	"CustomMarkings_main_active_unit_opt_tank_mini_title" : "Bulldozer (Minigun)",
	"CustomMarkings_main_active_unit_opt_spooc_title" : "Cloaker",
	"CustomMarkings_main_active_unit_opt_phalanx_vip_title" : "Cpt. Winters",
	"CustomMarkings_main_active_unit_opt_phalanx_title" : "Cpt. Winters Bodyguard",
	"CustomMarkings_main_active_unit_opt_medic_title" : "Medic",
	"CustomMarkings_main_active_unit_opt_shield_title" : "Shield",
	"CustomMarkings_main_active_unit_opt_sniper_title" : "Sniper",
	"CustomMarkings_main_active_unit_opt_taser_title" : "Taser",
	"CustomMarkings_main_active_unit_opt_civilian_title" : "Civilian",
	"CustomMarkings_main_active_mark_opt_mark_enemy_title" : "Standard",
	"CustomMarkings_main_active_mark_opt_mark_enemy_damage_bonus_title" : "HVT",
	"CustomMarkings_main_active_mark_opt_mark_enemy_damage_bonus_distance_title" : "HVT Aced"
}